artists_quarto
…
This allows us to focus on trends specific to American artists. ### Summarizing Data Let’s create summary statistics for our filtered dataset.

artists_summary <- artists_filtered |>  
  summarize(average_space_ratio = mean(space_ratio_per_page_total, na.rm = TRUE))

artists_summary

# A tibble: 22 × 2
    year average_space_ratio
   <dbl>               <dbl>
 1  1926               0.953
 2  1936               0.382
 3  1948               0.396
 4  1959               0.425
 5  1963               0.378
 6  1969               0.385
 7  1970               0.467
 8  1975               0.527
 9  1977               0.571
10  1980               0.444
# ℹ 12 more rows
…
